<?xml version="1.0" encoding="UTF-8" standalone="no"?>
<!-- Created with Inkscape (http://www.inkscape.org/) -->

<svg
   xmlns:dc="http://purl.org/dc/elements/1.1/"
   xmlns:cc="http://creativecommons.org/ns#"
   xmlns:rdf="http://www.w3.org/1999/02/22-rdf-syntax-ns#"
   xmlns:svg="http://www.w3.org/2000/svg"
   xmlns="http://www.w3.org/2000/svg"
   xmlns:sodipodi="http://sodipodi.sourceforge.net/DTD/sodipodi-0.dtd"
   xmlns:inkscape="http://www.inkscape.org/namespaces/inkscape"
   width="210mm"
   height="297mm"
   viewBox="0 0 210 297"
   version="1.1"
   id="svg1542"
   inkscape:version="0.92.2 (5c3e80d, 2017-08-06)"
   sodipodi:docname="mark.svg"
   inkscape:export-filename="D:\Development\Github\typesetting-fim\Stardust\mark.png"
   inkscape:export-xdpi="300"
   inkscape:export-ydpi="300">
  <defs
     id="defs1536" />
  <sodipodi:namedview
     id="base"
     pagecolor="#ffffff"
     bordercolor="#666666"
     borderopacity="1.0"
     inkscape:pageopacity="0.0"
     inkscape:pageshadow="2"
     inkscape:zoom="0.49497475"
     inkscape:cx="54.454661"
     inkscape:cy="703.48219"
     inkscape:document-units="mm"
     inkscape:current-layer="layer1"
     showgrid="false"
     inkscape:window-width="1920"
     inkscape:window-height="1057"
     inkscape:window-x="-8"
     inkscape:window-y="-8"
     inkscape:window-maximized="1" />
  <metadata
     id="metadata1539">
    <rdf:RDF>
      <cc:Work
         rdf:about="">
        <dc:format>image/svg+xml</dc:format>
        <dc:type
           rdf:resource="http://purl.org/dc/dcmitype/StillImage" />
        <dc:title></dc:title>
      </cc:Work>
    </rdf:RDF>
  </metadata>
  <g
     inkscape:label="Layer 1"
     inkscape:groupmode="layer"
     id="layer1">
    <g
       id="g10369"
       transform="translate(-111.65008,-164.68551)"
       style="display:inline;opacity:1;stroke:#4d4d4d;enable-background:new"
       inkscape:export-xdpi="648.53998"
       inkscape:export-ydpi="648.53998">
      <g
         style="fill:none;stroke:#4d4d4d;stroke-width:0.30000001;stroke-miterlimit:4;stroke-dasharray:none;stroke-opacity:1"
         transform="matrix(0.21764659,-0.09015112,0.09015217,0.21764405,121.9095,211.79241)"
         id="g5143-70-6-2-1">
        <g
           style="fill:none;stroke:#4d4d4d;stroke-width:0.30000001;stroke-miterlimit:4;stroke-dasharray:none;stroke-opacity:1"
           id="g5114-78-8-2-9" />
        <g
           style="fill:none;stroke:#4d4d4d;stroke-width:0.30000001;stroke-miterlimit:4;stroke-dasharray:none;stroke-opacity:1"
           transform="rotate(-180,196.66156,48.697175)"
           id="g5114-7-0-8-1-4">
          <path
             sodipodi:nodetypes="ccccccccccccccccccccccccccccccccc"
             inkscape:connector-curvature="0"
             id="path5061-4-6-1-4-4"
             d="m 189.99709,69.671604 -3.75904,-1.4854 -7.05491,3.912756 -6.11288,-6.168028 3.94251,-7.108604 -1.42367,-3.645042 -7.75533,-2.221836 0.039,-8.683906 7.81435,-2.238776 1.48539,-3.759066 -3.91273,-7.054919 6.16802,-6.112848 7.10859,3.942487 3.64502,-1.423659 2.22187,-7.755311 8.68389,0.039 2.2388,7.814311 3.75904,1.4854 7.05491,-3.912756 6.11288,6.168028 -3.94251,7.108604 1.42367,3.645042 7.75533,2.221836 -0.039,8.683906 -7.81435,2.238776 -1.48539,3.759066 3.91273,7.054919 -6.16802,6.112848 -7.10859,-3.942487 -3.64502,1.423659 -2.22187,7.755311 -8.68389,-0.039 -2.2388,-7.814311"
             style="fill:none;fill-rule:evenodd;stroke:#4d4d4d;stroke-width:0.30000001;stroke-linecap:butt;stroke-linejoin:miter;stroke-miterlimit:4;stroke-dasharray:none;stroke-opacity:1" />
        </g>
      </g>
      <g
         style="fill:none;stroke:#4d4d4d;stroke-width:0.30000001;stroke-miterlimit:4;stroke-dasharray:none;stroke-opacity:1"
         transform="matrix(0.21764659,-0.09015112,0.09015217,0.21764405,121.9095,211.79241)"
         id="g5143-7-6-8-9-7">
        <g
           style="fill:none;stroke:#4d4d4d;stroke-width:0.30000001;stroke-miterlimit:4;stroke-dasharray:none;stroke-opacity:1"
           id="g5114-8-4-1-0-6" />
        <g
           style="fill:none;stroke:#4d4d4d;stroke-width:0.30000001;stroke-miterlimit:4;stroke-dasharray:none;stroke-opacity:1"
           transform="rotate(-180,196.66156,48.697175)"
           id="g5114-7-4-8-2-1-4">
          <path
             d="m 192.4043,19.234375 a 0.63405869,0.63405869 0 0 0 -0.61133,0.460937 l -2.13477,7.453126 -3.07422,1.201171 -6.8496,-3.798828 a 0.63405869,0.63405869 0 0 0 -0.75391,0.103516 l -6.16797,6.113281 a 0.63405869,0.63405869 0 0 0 -0.10742,0.757813 l 3.76758,6.792968 -1.25977,3.191407 -7.51367,2.152343 a 0.63405869,0.63405869 0 0 0 -0.46094,0.607422 l -0.0391,8.683594 a 0.63405869,0.63405869 0 0 0 0.46094,0.611328 l 7.45312,2.136719 1.20117,3.074219 -3.79883,6.849609 a 0.63405869,0.63405869 0 0 0 0.10352,0.753906 l 6.11328,6.167969 a 0.63405869,0.63405869 0 0 0 0.75781,0.107422 l 6.79297,-3.769531 3.19141,1.261718 2.15234,7.513672 a 0.63405869,0.63405869 0 0 0 0.60743,0.460938 l 8.68359,0.03906 a 0.63405869,0.63405869 0 0 0 0.61133,-0.460937 l 2.13672,-7.453125 3.07421,-1.201172 6.84766,3.798828 a 0.63405869,0.63405869 0 0 0 0.75391,-0.103516 l 6.16797,-6.113281 a 0.63405869,0.63405869 0 0 0 0.10742,-0.757812 l -3.76758,-6.792969 1.26172,-3.191406 7.51367,-2.152344 A 0.63405869,0.63405869 0 0 0 226.08594,53.125 l 0.0391,-8.683594 a 0.63405869,0.63405869 0 0 0 -0.46094,-0.611328 l -7.45312,-2.136719 -1.20117,-3.074218 3.79687,-6.84961 a 0.63405869,0.63405869 0 0 0 -0.10352,-0.751953 l -6.11132,-6.167969 a 0.63405869,0.63405869 0 0 0 -0.75782,-0.109375 l -6.79296,3.769532 -3.19141,-1.261719 -2.15234,-7.513672 a 0.63405869,0.63405869 0 0 0 -0.60743,-0.460937 z"
             id="path5061-4-4-9-0-57-2"
             style="fill:none;fill-rule:evenodd;stroke:#4d4d4d;stroke-width:0.30000001;stroke-linecap:butt;stroke-linejoin:miter;stroke-miterlimit:4;stroke-dasharray:none;stroke-opacity:1"
             inkscape:original="M 192.40234 19.869141 L 190.18164 27.625 L 186.53711 29.048828 L 179.42773 25.105469 L 173.25977 31.21875 L 177.17188 38.273438 L 175.6875 42.033203 L 167.87305 44.271484 L 167.83398 52.955078 L 175.58984 55.177734 L 177.01367 58.822266 L 173.07031 65.931641 L 179.18359 72.099609 L 186.23828 68.185547 L 189.99805 69.671875 L 192.23633 77.486328 L 200.91992 77.525391 L 203.14258 69.769531 L 206.78711 68.345703 L 213.89453 72.289062 L 220.0625 66.175781 L 216.15039 59.121094 L 217.63672 55.361328 L 225.45117 53.123047 L 225.49023 44.439453 L 217.73438 42.216797 L 216.31055 38.572266 L 220.25195 31.462891 L 214.14062 25.294922 L 207.08594 29.208984 L 203.32617 27.722656 L 201.08789 19.908203 L 192.40234 19.869141 z "
             inkscape:radius="0.63399529"
             sodipodi:type="inkscape:offset" />
        </g>
      </g>
      <g
         id="g5114-7-43-6-2-3-5"
         transform="matrix(-0.21764659,0.09015112,-0.09015217,-0.21764405,216.29524,197.53119)"
         style="fill:none;stroke:#4d4d4d;stroke-width:0.30000001;stroke-miterlimit:4;stroke-dasharray:none;stroke-opacity:1">
        <path
           sodipodi:type="inkscape:offset"
           inkscape:radius="-3.4312284"
           inkscape:original="M 192.40234 19.869141 L 190.18164 27.625 L 186.53711 29.048828 L 179.42773 25.105469 L 173.25977 31.21875 L 177.17188 38.273438 L 175.6875 42.033203 L 167.87305 44.271484 L 167.83398 52.955078 L 175.58984 55.177734 L 177.01367 58.822266 L 173.07031 65.931641 L 179.18359 72.099609 L 186.23828 68.185547 L 189.99805 69.671875 L 192.23633 77.486328 L 200.91992 77.525391 L 203.14258 69.769531 L 206.78711 68.345703 L 213.89453 72.289062 L 220.0625 66.175781 L 216.15039 59.121094 L 217.63672 55.361328 L 225.45117 53.123047 L 225.49023 44.439453 L 217.73438 42.216797 L 216.31055 38.572266 L 220.25195 31.462891 L 214.14062 25.294922 L 207.08594 29.208984 L 203.32617 27.722656 L 201.08789 19.908203 L 192.40234 19.869141 z "
           style="fill:none;fill-rule:evenodd;stroke:#4d4d4d;stroke-width:0.30000001;stroke-linecap:butt;stroke-linejoin:miter;stroke-miterlimit:4;stroke-dasharray:none;stroke-opacity:1"
           id="path5061-4-8-0-2-2-3"
           d="m 194.98633,23.3125 -1.50586,5.257812 a 3.4315715,3.4315715 0 0 1 -2.05078,2.25 l -3.64453,1.423829 a 3.4315715,3.4315715 0 0 1 -2.91211,-0.195313 l -4.85743,-2.693359 -2.49609,2.470703 2.65235,4.783203 a 3.4315715,3.4315715 0 0 1 0.1914,2.923828 l -1.48437,3.759766 a 3.4315715,3.4315715 0 0 1 -2.2461,2.039062 l -5.33984,1.529297 -0.0156,3.511719 5.25782,1.505859 a 3.4315715,3.4315715 0 0 1 2.25,2.050782 l 1.42382,3.644531 a 3.4315715,3.4315715 0 0 1 -0.19531,2.912109 l -2.69336,4.857422 2.47071,2.494141 4.7832,-2.652344 A 3.4315715,3.4315715 0 0 1 187.5,64.994141 l 3.75977,1.486328 a 3.4315715,3.4315715 0 0 1 2.03711,2.246093 l 1.52929,5.339844 3.51172,0.01563 1.50586,-5.257812 a 3.4315715,3.4315715 0 0 1 2.05078,-2.25 l 3.64453,-1.423828 a 3.4315715,3.4315715 0 0 1 2.91211,0.195312 l 4.85742,2.693359 2.49414,-2.470703 -2.65234,-4.783203 a 3.4315715,3.4315715 0 0 1 -0.19141,-2.925781 l 1.48633,-3.759766 a 3.4315715,3.4315715 0 0 1 2.2461,-2.037109 l 5.33984,-1.529297 0.0156,-3.511719 -5.25782,-1.505859 a 3.4315715,3.4315715 0 0 1 -2.25,-2.050781 l -1.42383,-3.644532 a 3.4315715,3.4315715 0 0 1 0.19532,-2.912109 l 2.69336,-4.857422 -2.47071,-2.49414 -4.7832,2.652343 a 3.4315715,3.4315715 0 0 1 -2.92578,0.191407 l -3.75977,-1.486329 a 3.4315715,3.4315715 0 0 1 -2.03711,-2.246093 l -1.52929,-5.339844 z" />
      </g>
      <path
         sodipodi:nodetypes="ccccccccccscccccscccssscccccsccscsscsccccccsccccccccccccccsscscc"
         inkscape:connector-curvature="0"
         id="path5554-5-9-1"
         d="m 169.3998,208.16368 c -0.20291,-0.0313 -0.36457,-0.10941 -0.50316,-0.243 -0.13563,-0.13074 -0.19785,-0.24567 -0.18808,-0.34737 0.005,-0.0472 0.0227,-0.068 0.0548,-0.0628 0.0367,0.006 0.0555,0.0233 0.1356,0.12522 0.1038,0.13212 0.15935,0.18876 0.23431,0.2389 0.16049,0.10735 0.28034,0.13981 0.4595,0.12445 0.3133,-0.0269 0.5861,-0.17241 0.88509,-0.47223 0.20248,-0.20304 0.31598,-0.3595 0.49329,-0.68 0.21103,-0.38144 0.37797,-0.7835 0.49703,-1.19707 0.022,-0.0763 0.039,-0.13956 0.038,-0.14064 -9.5e-4,-9.4e-4 -0.0257,0.03 -0.0547,0.069 -0.0576,0.0775 -0.1887,0.21186 -0.26971,0.27643 -0.27296,0.21755 -0.70894,0.42285 -1.10362,0.51969 -0.11424,0.028 -0.27196,0.0567 -0.39598,0.072 -0.10564,0.013 -0.49504,0.0127 -0.58297,-4.7e-4 -0.3673,-0.0549 -0.62814,-0.17884 -0.85412,-0.40584 -0.19244,-0.19332 -0.31309,-0.42262 -0.36773,-0.69889 -0.0157,-0.0794 -0.0174,-0.10725 -0.0174,-0.28599 -1e-5,-0.15758 0.003,-0.21445 0.0134,-0.27865 0.092,-0.55342 0.37554,-1.01083 0.87388,-1.40992 0.32357,-0.25913 0.7132,-0.45723 1.14918,-0.58426 0.40786,-0.11885 0.71079,-0.15092 1.16362,-0.1232 0.31621,0.0194 0.48678,0.058 0.67906,0.15393 0.16057,0.0801 0.23806,0.16583 0.23825,0.26358 1.2e-4,0.0533 -0.007,0.0665 -0.0679,0.13392 -0.0298,0.0328 -0.0754,0.0948 -0.10126,0.13777 -0.0884,0.14677 -0.12682,0.18618 -0.17087,0.17513 -0.042,-0.0105 -0.0389,-0.0545 0.0119,-0.17169 0.0265,-0.0611 0.0309,-0.0785 0.0309,-0.1225 6e-5,-0.0435 -0.004,-0.0587 -0.0241,-0.0996 -0.0799,-0.15983 -0.24747,-0.26294 -0.51576,-0.3174 -0.14436,-0.0293 -0.22705,-0.0371 -0.38752,-0.0364 -0.29943,0.001 -0.55952,0.0476 -0.89882,0.16012 -0.57275,0.18992 -1.02801,0.53885 -1.32983,1.01926 -0.0614,0.0977 -0.15933,0.29935 -0.2048,0.42164 -0.19599,0.52718 -0.16924,1.00721 0.0745,1.33734 0.15129,0.20489 0.40022,0.38376 0.64961,0.46678 0.20869,0.0695 0.38345,0.0835 0.7157,0.0576 0.40902,-0.0319 0.76238,-0.14448 1.04495,-0.33286 0.12882,-0.0859 0.20135,-0.14565 0.31545,-0.25996 0.1908,-0.19114 0.36256,-0.43164 0.49905,-0.69878 l 0.044,-0.0862 -0.76108,-5e-5 c -0.49538,-3e-5 -0.77049,-0.003 -0.78805,-0.008 -0.0428,-0.0119 -0.0953,-0.0516 -0.1189,-0.0899 -0.0224,-0.0363 -0.0329,-0.0958 -0.0236,-0.13288 0.0113,-0.0452 0.11992,-0.11401 0.22051,-0.13976 0.0585,-0.015 0.13129,-0.0148 0.14643,4.7e-4 0.0163,0.0163 0.0146,0.0272 -0.0103,0.0665 -0.0164,0.0259 -0.0199,0.0369 -0.0139,0.0441 0.007,0.008 0.20165,0.01 1.06132,0.0116 1.02794,0.002 1.05398,0.002 1.08104,0.0163 0.0484,0.0249 0.0455,0.0755 -0.006,0.10457 -0.034,0.0192 -0.0792,0.033 -0.16121,0.0491 -0.0713,0.0139 -0.21861,0.0327 -0.27847,0.0354 l -0.0438,0.002 -0.0279,0.10266 c -0.18395,0.67603 -0.3672,1.27794 -0.46771,1.53624 -0.0455,0.11689 -0.18328,0.39117 -0.27446,0.5463 -0.21405,0.3642 -0.43297,0.62941 -0.66795,0.80922 -0.26079,0.19954 -0.5025,0.31009 -0.76426,0.34955 -0.0887,0.0134 -0.27553,0.013 -0.36459,-7.1e-4 z"
         style="fill:none;fill-opacity:1;stroke:#4d4d4d;stroke-width:0.06313364;stroke-miterlimit:4;stroke-dasharray:none;stroke-opacity:1" />
      <path
         sodipodi:nodetypes="ccccccccscsscsccscccccssscccscccccc"
         inkscape:connector-curvature="0"
         id="path5554-2-2-5-6"
         d="m 169.79023,203.88873 0.0412,-0.0866 c 0.0451,-0.0986 -0.0895,-0.47212 -0.32162,0.0548 l -0.0368,0.0877 c -0.13649,0.26713 -0.30824,0.50763 -0.49904,0.69877 -0.1141,0.11431 -0.18663,0.17408 -0.31546,0.25996 -0.28256,0.18838 -0.63592,0.30094 -1.04495,0.33286 -0.33224,0.0259 -0.507,0.0119 -0.71569,-0.0576 -0.24938,-0.083 -0.49831,-0.26189 -0.6496,-0.46678 -0.24377,-0.33013 -0.27052,-0.81015 -0.0745,-1.33734 0.0455,-0.12229 0.1434,-0.32391 0.2048,-0.42164 0.30182,-0.48041 0.75707,-0.82934 1.32982,-1.01926 0.3393,-0.1125 0.59938,-0.15884 0.89882,-0.16012 0.16047,-7e-4 0.24316,0.007 0.38752,0.0364 0.26829,0.0545 0.43583,0.15757 0.51575,0.3174 0.0205,0.0409 0.0241,0.0561 0.0241,0.0996 -6e-5,0.044 -0.004,0.0614 -0.031,0.12251 -0.0508,0.11714 -0.0539,0.16115 -0.0119,0.17168 0.0441,0.011 0.0825,-0.0284 0.17087,-0.17513 0.0259,-0.043 0.0714,-0.10498 0.10126,-0.13776 0.0614,-0.0675 0.0681,-0.0806 0.0679,-0.13393 -1.7e-4,-0.0977 -0.0777,-0.18348 -0.23825,-0.26357 -0.19228,-0.0959 -0.36285,-0.13458 -0.67905,-0.15393 -0.45284,-0.0277 -0.75576,0.004 -1.16362,0.12319 -0.43598,0.12704 -0.82561,0.32513 -1.14918,0.58427 -0.49833,0.39908 -0.78184,0.8565 -0.87387,1.40991 -0.0107,0.0642 -0.0134,0.12107 -0.0134,0.27866 1e-5,0.17873 0.002,0.20654 0.0174,0.28598 0.0546,0.27628 0.17529,0.50558 0.36772,0.69889 0.22598,0.22701 0.48682,0.35095 0.85412,0.40584 0.0879,0.0131 0.47733,0.0134 0.58297,4.8e-4 0.12401,-0.0153 0.28174,-0.044 0.39598,-0.072 0.39468,-0.0968 0.83065,-0.30214 1.10361,-0.51969 0.081,-0.0646 0.21209,-0.19891 0.26972,-0.27643 0.43309,-0.55962 0.47282,-0.6834 0.48435,-0.68701 z"
         style="fill:none;fill-opacity:1;stroke:#4d4d4d;stroke-width:0.063;stroke-miterlimit:4;stroke-dasharray:none;stroke-opacity:1" />
    </g>
  </g>
</svg>
